<svg width="47" height="47" viewBox="0 0 47 47" fill="none" xmlns="http://www.w3.org/2000/svg">
    <path d="M44.3541 21.122C43.6219 18.9595 42.5004 16.9491 41.045 15.19L41.1631 15.326L40.6921 14.798C40.4506 14.5609 40.2267 14.3066 40.0221 14.037C39.9771 13.978 39.9381 13.926 39.9021 13.876C39.3556 13.1093 39.0125 12.2166 38.9048 11.2814C38.797 10.3461 38.9283 9.39879 39.2861 8.52798C39.7193 7.47286 40.2251 6.44907 40.8 5.46399L41.4371 4.37598L40.1831 4.23999C39.9901 4.21899 39.789 4.19998 39.57 4.18298C38.744 4.11598 37.904 4.08299 37.07 4.09399C35.1802 4.11148 33.2975 4.32596 31.4521 4.73398C31.8186 4.27447 32.1604 3.79581 32.4761 3.29999L33.2311 2L31.7311 2.06998C30.9581 2.10498 30.182 2.16998 29.424 2.25198C24.8698 2.74241 20.4526 4.1056 16.414 6.267C12.5627 8.31439 9.15085 11.098 6.37205 14.46C6.12105 14.752 5.86303 15.065 5.60703 15.391C5.10073 16.0354 4.63553 16.7111 4.21409 17.414C3.0464 19.3433 2.25665 21.4773 1.88706 23.702C1.53531 25.8409 1.6002 28.0277 2.0781 30.142C2.56593 32.2909 3.45399 34.3288 4.69602 36.149C6.02786 38.0965 7.69593 39.7913 9.62205 41.154C13.2165 43.6839 17.4501 45.1517 21.8391 45.39C22.3724 45.4233 22.9018 45.44 23.4271 45.44C25.4146 45.4426 27.3954 45.2076 29.3271 44.74C30.1461 44.5405 30.9538 44.2979 31.747 44.013C33.0192 43.5566 34.248 42.9877 35.419 42.313C36.6154 41.6252 37.7413 40.8214 38.7801 39.913C40.6307 38.3155 42.1643 36.3843 43.3011 34.22C44.3511 32.2201 44.9843 30.028 45.1627 27.7764C45.3411 25.5247 45.061 23.2603 44.3391 21.12L44.3541 21.122Z" fill="#A4967E" stroke="white" stroke-width="3"/>
    <g opacity="0.67">
        <path opacity="0.67" d="M43.995 27.5839C43.995 32.2919 39.6029 35.2469 35.4339 38.8979C34.7219 39.5219 35.127 40.4459 34.329 40.9679C34.329 40.9679 34.0929 40.1529 34.0909 40.1529C32.8911 40.882 31.6308 41.5067 30.324 42.0199C29.535 42.3029 28.263 43.0409 27.439 43.2419C25.912 41.9419 26.697 41.8419 26.884 39.9129C27.127 37.4239 29.593 35.3449 29.157 32.8819C28.646 29.9949 24.608 29.0249 23.647 26.2549C22.976 24.3209 24.066 22.2129 25.421 20.6789C26.776 19.1449 28.4589 17.8359 29.3459 15.9909C30.6239 13.3299 29.971 10.2039 29.719 7.26288C29.701 7.04422 29.6862 6.82288 29.6749 6.59888C32.0552 5.9032 34.5202 5.53975 37 5.51887C37.62 5.51287 38.245 5.52787 38.866 5.56287C38.521 6.21887 38.125 7.03486 37.771 7.91486C37.2851 9.10169 37.108 10.3923 37.2563 11.6661C37.4046 12.94 37.8735 14.1554 38.619 15.1989C38.667 15.2669 38.719 15.3369 38.776 15.4109C39.0686 15.7958 39.3912 16.157 39.741 16.4909C42.43 19.5668 43.9379 23.4986 43.995 27.5839Z" fill="#A4967E"/>
    </g>
    <path d="M41.6503 28.2213C41.6469 29.3517 41.4007 30.4682 40.9283 31.4952C40.8813 31.5952 40.8283 31.7012 40.7812 31.8022C39.0812 35.2022 35.0243 37.9172 29.8563 39.1392C28.1375 39.3916 26.4025 39.5169 24.6653 39.5142C24.416 39.5142 24.167 39.5142 23.9183 39.5142H23.4893H23.3893H23.3123H23.2023L22.9923 39.5092H22.9243H22.8823L22.6672 39.5022H22.5913H22.5103L22.3843 39.4973L22.2653 39.4912L22.1353 39.4843H22.1133H22.0483H22.0193L21.7793 39.4702L21.6893 39.4642L21.3223 39.4392L20.9854 39.4132L20.7063 39.3892L20.6443 39.3832L20.4253 39.3622L20.2094 39.3412L19.8383 39.3022C19.6676 39.2842 19.4973 39.2642 19.3273 39.2422L19.0963 39.2142L18.6583 39.1562C18.1917 39.0929 17.7286 39.0229 17.2693 38.9462H17.2473C17.0053 38.9062 16.7637 38.8646 16.5223 38.8212C16.2733 38.7762 16.0223 38.7312 15.7773 38.6832C11.4673 37.3112 8.13231 34.8532 6.62231 31.8612C6.58731 31.7932 6.55334 31.7232 6.52234 31.6542C6.0121 30.5931 5.74484 29.4316 5.74023 28.2542C5.74229 27.4251 5.87736 26.6016 6.14026 25.8152V25.8092C6.26385 25.4378 6.41292 25.0752 6.5863 24.7242C7.54739 22.8997 8.96384 21.3547 10.6982 20.2392C14.5845 17.789 19.1051 16.5348 23.6982 16.6322C31.8982 16.6322 38.8193 20.1912 40.9673 25.0522C41.1643 25.4965 41.3215 25.9573 41.4373 26.4292C41.5785 27.0161 41.65 27.6176 41.6503 28.2213Z" fill="#C1B19D"/>
    <path d="M22.8095 27.9144C23.0755 27.9144 23.3405 27.9074 23.6095 27.9064C25.7525 27.9064 26.4185 28.4854 25.3775 29.4474C24.9362 29.804 24.427 30.0671 23.8808 30.2208C23.3347 30.3744 22.763 30.4155 22.2005 30.3414C21.0645 30.2224 19.8675 29.5255 19.7005 28.9005C19.5605 28.3765 20.0445 28.0714 21.0005 27.9704C21.5905 27.9084 22.2075 27.9194 22.8125 27.8984L22.8095 27.9144Z" fill="#D8D5C2"/>
    <path d="M23.292 27.5355C23.557 27.5355 23.8229 27.5285 24.0919 27.5285C26.2349 27.5285 26.901 28.1075 25.86 29.0695C25.4186 29.426 24.9094 29.6891 24.3633 29.8428C23.8171 29.9965 23.2455 30.0376 22.683 29.9635C21.547 29.8445 20.351 29.1465 20.183 28.5225C20.043 27.9985 20.5269 27.6935 21.4829 27.5935C22.0729 27.5315 22.6899 27.5425 23.2949 27.5215L23.292 27.5355Z" fill="#104075"/>
    <path d="M26.015 33.9153C26.074 33.8393 26.02 33.9073 26.005 33.9263L25.944 33.9993C25.9066 34.0426 25.8683 34.085 25.829 34.1263C25.7463 34.2136 25.6596 34.297 25.569 34.3763C25.521 34.4183 25.469 34.4583 25.423 34.4993C25.357 34.5543 25.413 34.5073 25.423 34.4993L25.3461 34.5563C25.2427 34.6316 25.136 34.7023 25.026 34.7683C24.9267 34.8283 24.8267 34.8843 24.7261 34.9363C24.6741 34.9623 24.626 34.9873 24.569 35.0123L24.48 35.0523L24.501 35.0443L24.447 35.0663C24.2149 35.1581 23.9771 35.2346 23.735 35.2953C23.613 35.3253 23.49 35.3513 23.366 35.3733L23.209 35.3993C23.082 35.4193 23.272 35.3993 23.194 35.3993L23.0751 35.4133C22.817 35.4399 22.5573 35.4489 22.298 35.4403C22.1786 35.4363 22.0594 35.4286 21.9401 35.4173L21.861 35.4093C21.861 35.4093 21.732 35.3933 21.804 35.4033C21.876 35.4133 21.748 35.3953 21.748 35.3953L21.631 35.3753C21.3855 35.332 21.1435 35.2708 20.907 35.1923C20.845 35.1716 20.7837 35.15 20.723 35.1273L20.632 35.0923L20.578 35.0703C20.623 35.0893 20.63 35.0923 20.599 35.0783C20.475 35.0223 20.354 34.9633 20.235 34.8973C20.1112 34.8288 19.9911 34.7541 19.875 34.6733C19.847 34.6533 19.705 34.5483 19.782 34.6083C19.721 34.5603 19.662 34.5083 19.604 34.4603C19.5159 34.3763 19.3987 34.3294 19.277 34.3294C19.1552 34.3294 19.0382 34.3763 18.9501 34.4603C18.8644 34.5476 18.8164 34.665 18.8164 34.7873C18.8164 34.9096 18.8644 35.027 18.9501 35.1143C19.8473 35.8334 20.9394 36.2671 22.0854 36.3596C23.2315 36.4521 24.3791 36.1992 25.38 35.6333C25.937 35.3179 26.4245 34.8931 26.813 34.3843C26.8743 34.2782 26.8913 34.1522 26.8602 34.0337C26.8291 33.9151 26.7525 33.8137 26.647 33.7513C26.5403 33.6926 26.4152 33.677 26.2974 33.7079C26.1796 33.7388 26.0782 33.8138 26.014 33.9173L26.015 33.9153Z" fill="#104075"/>
    <path d="M6.35742 31.8328L6.37439 31.8018L6.35742 31.8338V31.8328Z" fill="#FAF6EA"/>
    <path d="M40.9296 31.4955C40.9617 31.5331 40.9901 31.5736 41.0145 31.6165C40.9894 31.5741 40.9606 31.534 40.9285 31.4965C40.8815 31.5965 40.8285 31.7025 40.7825 31.8035C39.0825 35.2035 35.0255 37.9186 29.8575 39.1406C28.1388 39.3928 26.4037 39.5182 24.6665 39.5156C24.4172 39.5156 24.1682 39.5156 23.9196 39.5156H23.4905H23.3905H23.2585H23.2035H22.9935H22.9255H22.8835H22.7565L22.5916 39.5095H22.5105L22.3845 39.5045L22.2655 39.4986L22.1355 39.4915H22.1135H22.0486H22.0195L21.7795 39.4775L21.6896 39.4715L21.3225 39.4466L20.9855 39.4206L20.7065 39.3965L20.6445 39.3906L20.4255 39.3696L20.2095 39.3485L19.8385 39.3095C19.6678 39.2915 19.4975 39.2715 19.3275 39.2495L19.0966 39.2215L18.6586 39.1635C18.1919 39.1002 17.7289 39.0302 17.2695 38.9535H17.2476C17.0056 38.9135 16.7639 38.8719 16.5226 38.8285C16.2812 38.7852 16.0328 38.7392 15.7775 38.6905C11.4675 37.3185 8.13256 34.8605 6.62256 31.8685C6.58756 31.8005 6.55358 31.7305 6.52258 31.6615L6.50049 31.6836L6.52258 31.6615L6.53552 31.6496L6.57349 31.6165C6.58749 31.6045 6.60148 31.5925 6.61548 31.5815L6.6615 31.5475C6.6925 31.5245 6.72647 31.5026 6.76147 31.4816L6.81653 31.4485C6.89253 31.4055 6.97658 31.3635 7.06958 31.3225L7.1405 31.2925L7.21655 31.2605L7.29358 31.2305L7.37451 31.2006L7.51953 31.1485C7.61753 31.1145 7.72185 31.0812 7.83252 31.0485L8.29053 30.9085C8.59586 30.8165 8.90214 30.7262 9.20947 30.6375L9.55457 30.5376L10.2466 30.3445L10.5935 30.2505C10.8675 30.1765 11.1421 30.1039 11.4175 30.0326C11.8308 29.9259 12.2441 29.8219 12.6575 29.7205C12.9335 29.6539 13.2099 29.5872 13.4866 29.5205L13.9015 29.4206C14.3508 29.3172 14.8002 29.2172 15.2495 29.1205C16.175 28.9639 17.0057 28.4599 17.5721 27.7115C18.1386 26.9631 18.398 26.0268 18.2975 25.0936C18.2849 24.6382 18.181 24.19 17.9918 23.7756C17.8026 23.3612 17.5321 22.9891 17.1963 22.6813C16.8605 22.3735 16.4662 22.1362 16.037 21.9838C15.6077 21.8313 15.1522 21.7666 14.6975 21.7935C13.4128 21.8175 12.1471 22.1079 10.9805 22.6465C10.3822 22.9184 9.8062 23.2367 9.25757 23.5985C9.19557 23.6385 9.13451 23.6795 9.07251 23.7205C9.01051 23.7615 8.95053 23.8025 8.88953 23.8455C8.76753 23.9289 8.64649 24.0149 8.52649 24.1035C8.34582 24.2369 8.16684 24.3722 7.9895 24.5095C7.8345 24.6305 7.68254 24.7535 7.52954 24.8805L7.35754 25.0246L7.19751 25.1595L6.83655 25.4686L6.59753 25.6685C6.4642 25.7852 6.32521 25.9035 6.18054 26.0235L6.10156 26.0915C6.10956 25.9985 6.11849 25.9056 6.13049 25.8126C6.17349 25.4478 6.23624 25.0855 6.31848 24.7275C6.33048 24.6725 6.34354 24.6175 6.35754 24.5615C6.38454 24.4515 6.41358 24.3405 6.44458 24.2305C6.46058 24.1755 6.47555 24.1195 6.49255 24.0645C6.50955 24.0095 6.51847 23.9765 6.53247 23.9325C6.59914 23.7112 6.67547 23.4899 6.76147 23.2685C6.77847 23.2235 6.7955 23.1795 6.8125 23.1355C6.87917 22.9589 6.95321 22.7829 7.03455 22.6075C7.05455 22.5635 7.07448 22.5195 7.09448 22.4755C7.14048 22.3755 7.18747 22.2756 7.23547 22.1756C7.30847 22.0276 7.38448 21.8815 7.46448 21.7345L7.54456 21.5886L7.62756 21.4426C7.65556 21.3936 7.68352 21.3425 7.71252 21.2965C7.87852 21.0159 8.05658 20.7382 8.24658 20.4636L8.32849 20.3465C8.49516 20.1119 8.67018 19.8785 8.85352 19.6465C8.88452 19.6075 8.91456 19.5696 8.94556 19.5326L9.03955 19.4185C9.56052 18.7959 10.1288 18.2145 10.7395 17.6796C14.4516 14.5865 19.1504 12.9284 23.9816 13.0066C32.3436 12.8956 40.0695 18.5065 41.2755 25.0496C41.3599 25.5043 41.4118 25.9644 41.4305 26.4265C41.4305 26.4705 41.4305 26.5155 41.4305 26.5595C40.5125 25.7595 39.7235 24.9995 38.8705 24.3265C36.8838 22.5763 34.3272 21.6107 31.6796 21.6106C30.7881 21.6465 29.9462 22.0301 29.3342 22.6793C28.7222 23.3285 28.3888 24.1915 28.4055 25.0835C28.3534 25.967 28.6187 26.84 29.1536 27.545C29.6884 28.25 30.4577 28.7407 31.3225 28.9285C34.2315 29.5675 37.1145 30.3286 40.0065 31.0456C40.2005 31.0896 40.3885 31.1567 40.5665 31.2455C40.6015 31.2645 40.6355 31.2835 40.6665 31.3035L40.7285 31.3445L40.7576 31.3655L40.7855 31.3875C40.8367 31.419 40.885 31.4552 40.9296 31.4955Z" fill="#FAF6EA"/>
    <path d="M41.0547 31.6953C41.071 31.7305 41.0844 31.7669 41.0947 31.8043C41.0841 31.7671 41.0707 31.7306 41.0547 31.6953Z" fill="#FAF6EA"/>
    <path d="M23.3392 26.7721C23.5702 26.7721 23.801 26.7631 24.031 26.7661C25.894 26.7821 26.4761 27.7661 25.5791 29.3911C25.3452 29.9058 24.9493 30.3298 24.4519 30.5987C23.9546 30.8675 23.3829 30.9663 22.8241 30.8801C22.2746 30.7007 21.7827 30.3782 21.3992 29.9456C21.0157 29.5131 20.7544 28.9862 20.6421 28.4191C20.5964 28.2414 20.5902 28.0559 20.6239 27.8755C20.6577 27.6952 20.7307 27.5245 20.8376 27.3754C20.9444 27.2263 21.0827 27.1024 21.2426 27.0125C21.4025 26.9226 21.5802 26.8689 21.7631 26.8551C22.2851 26.7843 22.8112 26.7482 23.3381 26.7471L23.3392 26.7721Z" fill="#D8D5C2"/>
    <g opacity="0.52">
        <path opacity="0.52" d="M10.9796 22.6084C9.91164 23.1069 8.90773 23.7324 7.98962 24.4714C7.37062 24.9554 6.78961 25.4814 6.09961 26.0574C6.5216 22.7667 8.18107 19.7603 10.7406 17.6494C10.5846 19.3057 10.665 20.9758 10.9796 22.6094V22.6084Z" fill="#D8D5C2"/>
        <path opacity="0.52" d="M40.9294 31.494C40.8824 31.594 40.8294 31.7 40.7834 31.801C39.0834 35.201 35.0264 37.916 29.8584 39.138C28.1396 39.3903 26.4047 39.5156 24.6675 39.513C24.4181 39.513 24.1691 39.513 23.9204 39.513H23.4915H23.3915H23.2594H23.2045L22.9944 39.508H22.9264H22.8844H22.7574H22.6685H22.5924H22.5115L22.3854 39.503L22.2665 39.497L22.1365 39.49H22.1144H22.0504H22.0214L21.7814 39.476L21.5314 39.46L21.6914 39.47L21.3245 39.445L20.9865 39.419L20.7074 39.395L20.6454 39.389L20.4264 39.368L20.2104 39.347L19.8395 39.308C19.6688 39.29 19.4984 39.27 19.3284 39.248L19.0974 39.22L18.6604 39.162C18.1937 39.0953 17.7307 39.0253 17.2714 38.952H17.2494C17.0074 38.912 16.7654 38.87 16.5244 38.827C16.2834 38.784 16.0244 38.737 15.7794 38.689C11.4694 37.317 8.13439 34.859 6.62439 31.867C6.58939 31.799 6.55541 31.729 6.52441 31.66L6.53748 31.647L6.57544 31.614L6.61743 31.579L6.66345 31.545C6.69545 31.523 6.72843 31.5 6.76343 31.479L6.81848 31.446C6.89448 31.403 6.97741 31.361 7.07141 31.32L7.14246 31.29L7.21838 31.258L7.29541 31.228L7.37646 31.198L7.52136 31.146C7.61936 31.112 7.72381 31.0786 7.83447 31.046L8.29248 30.906C8.59781 30.8133 8.90409 30.723 9.21143 30.635L9.5564 30.535C9.78706 30.4683 10.0177 30.404 10.2484 30.342L10.5955 30.248C10.8695 30.174 11.1441 30.1013 11.4194 30.03C11.8321 29.9226 12.2454 29.8186 12.6594 29.718C12.9354 29.6513 13.2117 29.5846 13.4884 29.518L13.9034 29.418C15.6249 31.8217 17.9308 33.7466 20.6034 35.011C21.3631 35.3702 22.1482 35.6731 22.9524 35.917C26.0336 36.8514 29.314 36.9099 32.4265 36.086C35.5391 35.2621 38.361 33.5884 40.5764 31.252C40.6124 31.271 40.6454 31.29 40.6764 31.31L40.7384 31.351L40.7675 31.372L40.7954 31.394C40.8429 31.4234 40.8878 31.4568 40.9294 31.494Z" fill="#D8D5C2"/>
    </g>
    <path d="M23.7522 26.1344C23.9832 26.1344 24.2131 26.1254 24.4441 26.1274C26.3071 26.1434 26.8892 27.1274 25.9922 28.7524C25.7584 29.2672 25.3626 29.6914 24.8652 29.9602C24.3677 30.229 23.796 30.3278 23.2372 30.2414C22.6876 30.0622 22.1957 29.7397 21.8122 29.3071C21.4286 28.8745 21.1673 28.3475 21.0552 27.7804C21.0095 27.6027 21.0033 27.4172 21.037 27.2369C21.0708 27.0566 21.1438 26.8858 21.2507 26.7367C21.3575 26.5876 21.4958 26.4637 21.6557 26.3738C21.8156 26.2839 21.9933 26.2302 22.1762 26.2164C22.6982 26.1458 23.2243 26.1097 23.7511 26.1084L23.7522 26.1344Z" fill="#351C01"/>
    <path d="M20.0695 35.0919C21.0827 35.8129 22.2893 36.2125 23.5325 36.2389C24.8099 36.2377 26.0398 35.7545 26.9765 34.8859C27.0372 34.8252 27.0854 34.7532 27.1182 34.6739C27.151 34.5946 27.1679 34.5097 27.1679 34.4239C27.1679 34.3381 27.151 34.2531 27.1182 34.1739C27.0854 34.0946 27.0372 34.0226 26.9765 33.9619C26.9158 33.9012 26.8438 33.8531 26.7646 33.8203C26.6853 33.7874 26.6004 33.7705 26.5146 33.7705C26.4288 33.7705 26.3437 33.7874 26.2644 33.8203C26.1852 33.8531 26.1132 33.9012 26.0525 33.9619C25.303 34.5802 24.3617 34.9183 23.3901 34.9183C22.4184 34.9183 21.4771 34.5802 20.7276 33.9619C20.5777 33.8762 20.4002 33.8526 20.2332 33.8964C20.0662 33.9402 19.9231 34.0477 19.8345 34.1959C19.7506 34.3461 19.7281 34.523 19.7718 34.6895C19.8154 34.856 19.9217 34.9991 20.0685 35.0889L20.0695 35.0919Z" fill="#351C01"/>
    <path d="M32.7863 19.8298C33.0867 20.0323 33.4358 20.151 33.7974 20.1735C34.159 20.196 34.5201 20.1215 34.8433 19.9578C34.4458 19.4901 33.9416 19.1249 33.3733 18.8928C33.0593 18.7648 32.6232 18.7168 32.4502 19.0058C32.2772 19.2948 32.5163 19.6428 32.7863 19.8298Z" fill="#351C01"/>
    <path d="M36.1443 25.2715C36.1567 25.7481 36.0273 26.2177 35.7725 26.6207C35.5177 27.0237 35.149 27.342 34.7131 27.5353C34.2773 27.7285 33.7937 27.788 33.324 27.7063C32.8543 27.6245 32.4194 27.4051 32.0745 27.0759C31.7296 26.7467 31.4902 26.3225 31.3866 25.8571C31.283 25.3917 31.32 24.906 31.4927 24.4616C31.6654 24.0172 31.9661 23.6341 32.3568 23.3608C32.7475 23.0875 33.2106 22.9363 33.6873 22.9265C34.0026 22.9189 34.3164 22.9736 34.6106 23.0874C34.9048 23.2011 35.1737 23.3718 35.4019 23.5896C35.6301 23.8074 35.8131 24.0681 35.9404 24.3566C36.0678 24.6452 36.1372 24.9561 36.1443 25.2715Z" fill="#351C01"/>
    <path d="M33.155 25.0388C33.1597 25.2203 33.1104 25.3992 33.0134 25.5526C32.9163 25.7061 32.7759 25.8273 32.6098 25.9009C32.4438 25.9745 32.2597 25.9971 32.0808 25.9659C31.9019 25.9348 31.7363 25.8511 31.6049 25.7257C31.4736 25.6003 31.3825 25.4387 31.3431 25.2614C31.3037 25.0841 31.3179 24.8992 31.3838 24.7299C31.4496 24.5607 31.5642 24.4148 31.7131 24.3108C31.862 24.2068 32.0384 24.1494 32.2199 24.1458C32.34 24.143 32.4594 24.1638 32.5714 24.2072C32.6833 24.2506 32.7857 24.3156 32.8725 24.3985C32.9594 24.4815 33.029 24.5807 33.0775 24.6905C33.126 24.8004 33.1523 24.9187 33.155 25.0388Z" fill="white"/>
    <path d="M34.6621 25.4599C34.6646 25.5514 34.6399 25.6416 34.5912 25.719C34.5424 25.7965 34.4717 25.8577 34.388 25.8949C34.3044 25.9321 34.2116 25.9436 34.1214 25.928C34.0312 25.9124 33.9477 25.8704 33.8814 25.8072C33.8152 25.744 33.7693 25.6626 33.7494 25.5733C33.7295 25.4839 33.7365 25.3907 33.7696 25.3054C33.8028 25.2201 33.8606 25.1465 33.9356 25.0941C34.0107 25.0417 34.0995 25.0127 34.191 25.0109C34.2514 25.0094 34.3116 25.0199 34.368 25.0417C34.4244 25.0634 34.4759 25.0961 34.5196 25.1378C34.5634 25.1795 34.5985 25.2294 34.6229 25.2847C34.6473 25.3399 34.6607 25.3995 34.6621 25.4599Z" fill="white"/>
    <path d="M14.4642 19.9753C14.1638 20.1779 13.8147 20.2965 13.4531 20.319C13.0915 20.3415 12.7304 20.2671 12.4072 20.1033C12.805 19.6358 13.309 19.2706 13.8772 19.0383C14.1912 18.9103 14.6262 18.8623 14.8002 19.1513C14.9742 19.4403 14.7342 19.7873 14.4642 19.9753Z" fill="#351C01"/>
    <path d="M11.1073 25.416C11.0949 25.8926 11.2243 26.3622 11.4791 26.7652C11.7339 27.1683 12.1025 27.4866 12.5384 27.6798C12.9743 27.8731 13.4577 27.9326 13.9274 27.8508C14.3972 27.769 14.832 27.5496 15.177 27.2204C15.5219 26.8913 15.7614 26.4671 15.8649 26.0017C15.9685 25.5363 15.9316 25.0506 15.7589 24.6062C15.5861 24.1617 15.2854 23.7786 14.8947 23.5053C14.504 23.232 14.041 23.0809 13.5643 23.071C13.2489 23.0634 12.9352 23.1181 12.6409 23.2319C12.3467 23.3457 12.0778 23.5164 11.8496 23.7342C11.6214 23.9519 11.4384 24.2126 11.311 24.5012C11.1836 24.7898 11.1144 25.1006 11.1073 25.416Z" fill="#351C01"/>
    <path d="M14.096 25.1833C14.0913 25.3646 14.1405 25.5432 14.2374 25.6965C14.3343 25.8498 14.4745 25.9709 14.6403 26.0444C14.8061 26.118 14.99 26.1406 15.1686 26.1096C15.3473 26.0785 15.5128 25.9951 15.644 25.8699C15.7752 25.7447 15.8664 25.5834 15.9058 25.4063C15.9453 25.2293 15.9312 25.0446 15.8655 24.8755C15.7999 24.7065 15.6856 24.5607 15.5371 24.4567C15.3885 24.3527 15.2124 24.2951 15.0311 24.2913C14.9111 24.2884 14.7917 24.3091 14.6798 24.3524C14.5678 24.3957 14.4654 24.4606 14.3786 24.5434C14.2918 24.6263 14.2221 24.7254 14.1736 24.8352C14.1252 24.945 14.0987 25.0633 14.096 25.1833Z" fill="white"/>
    <path d="M12.588 25.6054C12.5857 25.6969 12.6105 25.787 12.6595 25.8643C12.7084 25.9416 12.7792 26.0027 12.8628 26.0397C12.9465 26.0768 13.0392 26.0882 13.1293 26.0724C13.2194 26.0567 13.3029 26.0146 13.3691 25.9514C13.4352 25.8882 13.4811 25.8067 13.5009 25.7174C13.5207 25.6281 13.5136 25.5349 13.4804 25.4497C13.4472 25.3644 13.3894 25.2909 13.3144 25.2385C13.2394 25.1862 13.1505 25.1572 13.059 25.1554C12.9985 25.1539 12.9383 25.1645 12.8819 25.1863C12.8254 25.2081 12.7739 25.2409 12.7301 25.2827C12.6864 25.3245 12.6514 25.3745 12.627 25.4299C12.6026 25.4853 12.5893 25.5449 12.588 25.6054Z" fill="white"/>
</svg>
